…
```
## # A tibble: 3 × 7
##   cntry trust_mean trust_sd news_med news_iqr net_mean net_sd
##   <chr>      <dbl>    <dbl>    <dbl>    <dbl>    <dbl>  <dbl>
## 1 DE          4.90     2.40        1        1    1322.  2417.
## 2 FR          4.53     2.18        1        2    1754.  2771.
## 3 GB          5.31     2.22        1        2    1539.  2581.
```

<img src="02-descriptive-ess_files/figure-html/psA-output-1.png" width="672" />

```
## # A tibble: 43 × 5
## # Groups:   cntry [3]
##    cntry gender dom_group     n    prop
##    <chr> <chr>  <fct>     <int>   <dbl>
##  1 DE    Female Big city   3212 0.0872 
##  2 DE    Female Suburbs    2442 0.0663 
##  3 DE    Female Town       6723 0.182  
##  4 DE    Female Village    5354 0.145  
##  5 DE    Female Farm        391 0.0106 
##  6 DE    Female <NA>         86 0.00233
##  7 DE    Male   Big city   3144 0.0853 
##  8 DE    Male   Suburbs    2396 0.0650 
##  9 DE    Male   Town       6475 0.176  
## 10 DE    Male   Village    5739 0.156  
## # ℹ 33 more rows
```
…
